…
  unite(quarter, c("year", "quarter"), sep ="-") %>%
  mutate(
    realtime_start = NULL,
    realtime_end   = NULL,
    date           = NULL,
    gdp            = value,
    value          = NULL,
    quarter        = as.yearqtr(quarter),
    d_gdp          = c(NA, diff(gdp)),
    d2_gdp         = c(NA,diff(d_gdp))
    )
GDP_data
```

    ## # A tibble: 121 x 4
    ##    quarter     gdp d_gdp d2_gdp
    ##    <yearqtr> <dbl> <dbl>  <dbl>
    ##  1 1990 Q1   5873.  NA    NA   
    ##  2 1990 Q2   5960.  87.3  NA   
    ##  3 1990 Q3   6015.  55.1 -32.2 
    ##  4 1990 Q4   6005. -10.4 -65.5 
    ##  5 1991 Q1   6035.  30.4  40.8 
    ##  6 1991 Q2   6127.  91.7  61.2 
    ##  7 1991 Q3   6206.  79.1 -12.6 
    ##  8 1991 Q4   6265.  58.6 -20.5 
    ##  9 1992 Q1   6363.  98.6  40.0 
    ## 10 1992 Q2   6471. 108.    9.10
    ## # ... with 111 more rows
…
