…
dvr_year <- dvr_year_s %>%
  mutate(
    party  = factor(party),
    votes  = `sum(candidatevotes)`,
    'sum(candidatevotes)' = NULL,
    ) %>%
  group_by(year) %>%
  mutate(
    popular    = ifelse(votes==max(votes),1,0),
    percentage = votes/sum(votes)
    )
dvr_year
```

    ## # A tibble: 22 x 5
    ## # Groups:   year [11]
    ##     year party         votes popular percentage
    ##    <int> <fct>         <int>   <dbl>      <dbl>
    ##  1  1976 democrat   40680446       1      0.511
    ##  2  1976 republican 38870893       0      0.489
    ##  3  1980 democrat   35480948       0      0.448
    ##  4  1980 republican 43642639       1      0.552
    ##  5  1984 democrat   37449813       0      0.409
    ##  6  1984 republican 54166829       1      0.591
    ##  7  1988 democrat   41716679       0      0.462
    ##  8  1988 republican 48642640       1      0.538
    ##  9  1992 democrat   44856747       1      0.536
    ## 10  1992 republican 38798913       0      0.464
    ## # ... with 12 more rows
…
